[
  { "id": 1, "text": "Legst du Eier?", "dialogId": 1, "type": "question" },
  { "id": 2, "text": "Hast du Flügel?", "dialogId": 1, "type": "question" },
  { "id": 3, "text": "Lebst du im Wasser?", "dialogId": 1, "type": "question" },
  { "id": 101, "text": "Du bist ein Säugetier", "dialogId": 1, "type": "answer" },
  { "id": 102, "text": "Du bist ein Reptil", "dialogId": 1, "type": "answer" },
  { "id": 103, "text": "Du bist ein Vogel", "dialogId": 1, "type": "answer" },
  { "id": 104, "text": "Du bist ein Fisch", "dialogId": 1, "type": "answer" },
  { "id": 105, "text": "Du bist ein Pinguin", "dialogId": 1, "type": "answer" },
  
  { "id": 4, "text": "Darf ich dir eine Rechenaufgabe stellen?", "dialogId": 2, "type": "question" },
  { "id": 5, "text": "Was ist 17 + 25?", "dialogId": 2, "type": "question" },

  { "id": 105, "text": "Okay, dann nicht", "dialogId": 2, "type": "answer" },
  { "id": 106, "text": "Das ist richtig, super!", "dialogId": 2, "type": "answer" }
]
